[gd_scene load_steps=3 format=3 uid="uid://c7fgdridawfb3"]

[ext_resource type="PackedScene" uid="uid://c6fe3irjwm5gv" path="res://src/items/item.tscn" id="1_lbwot"]
[ext_resource type="Script" path="res://src/combat/effect.gd" id="2_qi62v"]

[node name="MagicCapsuleOfRegen" instance=ExtResource("1_lbwot")]
char = "🤀"
caption = "magic capsule of regen"
desc_simple = "A sweet and fragrent mixture in an ornate glass ampoule."
desc_detailed = "A mixture of honey and rare Persian blue salt in an ornate glass ampoule with writings in an ancient Franconian dialect not spoken since the Black Plague. Can boost your health over your normal maximum."
consumable = true
spawn_cost = 4.0

[node name="Effect" type="Node" parent="." index="1"]
script = ExtResource("2_qi62v")
condition_name = "amplified healing"
healing = 3
nb_turns = 8
tags = Array[String](["magical"])
