[gd_scene load_steps=2 format=3 uid="uid://cv2ngsgh0xwnl"]

[ext_resource type="Script" path="res://src/ui/messages_screen.gd" id="1_vdm16"]

[node name="MessagesScreen" type="Control"]
layout_mode = 3
anchors_preset = 15
anchor_right = 1.0
anchor_bottom = 1.0
grow_horizontal = 2
grow_vertical = 2
script = ExtResource("1_vdm16")

[node name="Background" type="ColorRect" parent="."]
layout_mode = 1
anchors_preset = 15
anchor_right = 1.0
anchor_bottom = 1.0
grow_horizontal = 2
grow_vertical = 2
color = Color(0, 0, 0, 0.95)

[node name="VBoxContainer" type="VBoxContainer" parent="."]
layout_mode = 1
anchors_preset = 15
anchor_right = 1.0
anchor_bottom = 1.0
grow_horizontal = 2
grow_vertical = 2

[node name="Label" type="Label" parent="VBoxContainer"]
layout_mode = 2
theme_type_variation = &"TitleLabel"
text = "Messages"
horizontal_alignment = 1

[node name="ListView" type="ItemList" parent="VBoxContainer"]
unique_name_in_owner = true
layout_mode = 2
size_flags_vertical = 3

[node name="MarginContainer" type="MarginContainer" parent="VBoxContainer"]
layout_mode = 2
size_flags_horizontal = 8

[node name="BackButton" type="Button" parent="VBoxContainer/MarginContainer"]
layout_mode = 2
text = "Back"

[node name="EmptyLabel" type="Label" parent="."]
visible = false
layout_mode = 1
anchors_preset = 8
anchor_left = 0.5
anchor_top = 0.5
anchor_right = 0.5
anchor_bottom = 0.5
offset_left = -84.0
offset_top = -13.0
offset_right = 84.0
offset_bottom = 13.0
grow_horizontal = 2
grow_vertical = 2
text = "No messages!"

[connection signal="button_up" from="VBoxContainer/MarginContainer/BackButton" to="." method="_on_back_button_pressed"]
