[gd_scene load_steps=41 format=3 uid="uid://c185mr0bu3u3w"]

[ext_resource type="Script" path="res://src/deck_builder.gd" id="1_yitoo"]
[ext_resource type="PackedScene" uid="uid://ons174xuqpcw" path="res://src/monsters/sewer_otter.tscn" id="2_i1rpj"]
[ext_resource type="Script" path="res://src/tally.gd" id="2_lywjr"]
[ext_resource type="PackedScene" uid="uid://d4f1ul2rt43ys" path="res://src/monsters/labras.tscn" id="3_tqdik"]
[ext_resource type="PackedScene" uid="uid://b26vqfk7j6un7" path="res://src/monsters/desert_centipede.tscn" id="4_m33kh"]
[ext_resource type="PackedScene" uid="uid://cx7utj7hd3ne" path="res://src/monsters/kobold.tscn" id="5_yqsgm"]
[ext_resource type="PackedScene" uid="uid://dae5sqhh0bd65" path="res://src/monsters/sulant_tiger.tscn" id="6_da4pf"]
[ext_resource type="Script" path="res://src/card_rule.gd" id="7_bd8gw"]
[ext_resource type="PackedScene" uid="uid://d32rti5y0shob" path="res://src/monsters/rat.tscn" id="8_eau7g"]
[ext_resource type="PackedScene" uid="uid://c3uuk6yfc2thp" path="res://src/monsters/sahwakoon.tscn" id="9_s5p53"]
[ext_resource type="PackedScene" uid="uid://djjksywe6fjk4" path="res://src/items/lost_loom_cards.tscn" id="11_320yy"]
[ext_resource type="PackedScene" uid="uid://dvr7bsle8gy1x" path="res://src/items/potion_of_regen.tscn" id="12_5tg6f"]
[ext_resource type="PackedScene" uid="uid://d8jxxkoa4b00" path="res://src/people/outlaw.tscn" id="12_g5w02"]
[ext_resource type="PackedScene" uid="uid://wdbao74ejnju" path="res://src/items/potion_of_poison.tscn" id="15_0p6sp"]
[ext_resource type="PackedScene" uid="uid://dnbg7u15s0nry" path="res://src/weapons/hammer.tscn" id="15_ngw60"]
[ext_resource type="PackedScene" uid="uid://ddryv4det5wth" path="res://src/people/grenn_kuhn.tscn" id="16_s7e88"]
[ext_resource type="PackedScene" uid="uid://diwm5gi6utoab" path="res://src/weapons/rapier.tscn" id="16_ygxep"]
[ext_resource type="PackedScene" uid="uid://cfb7pinvs8cj1" path="res://src/weapons/razor.tscn" id="17_4rmpd"]
[ext_resource type="PackedScene" uid="uid://6ml8upew405" path="res://src/weapons/saber.tscn" id="18_0s2fs"]
[ext_resource type="Script" path="res://src/combat/memory.gd" id="18_624x2"]
[ext_resource type="PackedScene" uid="uid://h7s2p8mgm387" path="res://src/weapons/sword.tscn" id="19_holdq"]
[ext_resource type="PackedScene" uid="uid://btvcwiysrm7i6" path="res://src/items/dynamite.tscn" id="20_8peit"]
[ext_resource type="PackedScene" uid="uid://de85ahbbn0ced" path="res://src/items/potion_of_healing.tscn" id="22_bxpqo"]
[ext_resource type="PackedScene" uid="uid://chpblbtevaa13" path="res://src/items/carrot.tscn" id="24_2jxsh"]
[ext_resource type="PackedScene" uid="uid://b2dem6s27irbs" path="res://src/weapons/grayswandir.tscn" id="24_lwi07"]
[ext_resource type="PackedScene" uid="uid://cmshyslfrv0du" path="res://src/vibes/hissing.tscn" id="25_0ydwd"]
[ext_resource type="PackedScene" uid="uid://cbpo1nvheopyj" path="res://src/monsters/retznac.tscn" id="25_cxgj3"]
[ext_resource type="PackedScene" uid="uid://c8frbdj65suee" path="res://src/weapons/cane.tscn" id="27_5htvc"]
[ext_resource type="PackedScene" uid="uid://bado87soxnga5" path="res://src/items/potion_of_absinthe.tscn" id="27_p82t1"]
[ext_resource type="PackedScene" uid="uid://drnpu2dw1i4nn" path="res://src/weapons/weighted_cane.tscn" id="28_0tyeq"]
[ext_resource type="PackedScene" uid="uid://dyru8oxadarmy" path="res://src/monsters/sewer_alligator.tscn" id="28_gg2lb"]
[ext_resource type="PackedScene" uid="uid://ckwurta0jp1i" path="res://src/people/canut.tscn" id="29_4utm8"]
[ext_resource type="PackedScene" uid="uid://d0bqc8t021r2d" path="res://src/items/malachite.tscn" id="30_yr7or"]
[ext_resource type="PackedScene" uid="uid://cjhuo8ouk2mpa" path="res://src/monsters/pacherr.tscn" id="32_yyth2"]
[ext_resource type="PackedScene" uid="uid://2d8jw4r5bwa5" path="res://src/monsters/yrganiv.tscn" id="33_rbr6l"]
[ext_resource type="PackedScene" uid="uid://bd6cfr7s56sou" path="res://src/items/gem.tscn" id="34_io24d"]
[ext_resource type="PackedScene" uid="uid://bnykesyfgf2b5" path="res://src/people/lyonese.tscn" id="34_yppu8"]

[sub_resource type="Resource" id="Resource_58dw8"]
script = ExtResource("2_lywjr")
hold_counts = {}
draw_counts = {}

[sub_resource type="Resource" id="Resource_dc76m"]
resource_local_to_scene = true
script = ExtResource("18_624x2")
_facts = []

[sub_resource type="Resource" id="Resource_m8omd"]
resource_local_to_scene = true
script = ExtResource("18_624x2")
_facts = []

[node name="DeckBuilder" type="Node"]
script = ExtResource("1_yitoo")
tally = SubResource("Resource_58dw8")

[node name="Hissing" parent="." instance=ExtResource("25_0ydwd")]

[node name="SewerOtter" parent="." instance=ExtResource("2_i1rpj")]
mem = null

[node name="Labras" parent="." instance=ExtResource("3_tqdik")]
mem = null

[node name="DesertCentipede" parent="." instance=ExtResource("4_m33kh")]

[node name="SulantTiger" parent="." instance=ExtResource("6_da4pf")]

[node name="Kobold" parent="." instance=ExtResource("5_yqsgm")]
mem = null

[node name="Max3PerFloor" type="Node" parent="."]
script = ExtResource("7_bd8gw")
max_board_occ = 3

[node name="Rat" parent="Max3PerFloor" instance=ExtResource("8_eau7g")]

[node name="Sahwakoon" parent="Max3PerFloor" instance=ExtResource("9_s5p53")]
mem = null

[node name="Quest1Goals" type="Node" parent="."]
script = ExtResource("7_bd8gw")
max_dungeon_occ = 1
min_dungeon_occ = 1
world_loc = Vector3i(11, 4, 0)

[node name="Outlaw1" parent="Quest1Goals" instance=ExtResource("12_g5w02")]
mem = null

[node name="LoomCards" parent="Quest1Goals/Outlaw1" instance=ExtResource("11_320yy")]

[node name="Outlaw2" parent="Quest1Goals" instance=ExtResource("12_g5w02")]
mem = null

[node name="PotionOfHealing" parent="Quest1Goals/Outlaw2" instance=ExtResource("22_bxpqo")]
visible = false
message = ""
skill = ""
switchable = false
spawn_rect = Rect2i(0, 0, 0, 0)
ttl = -1

[node name="PotionOfRegen" parent="Quest1Goals/Outlaw2" instance=ExtResource("12_5tg6f")]
visible = false

[node name="Outlaw3" parent="Quest1Goals" instance=ExtResource("12_g5w02")]
mem = null

[node name="PotionOfPoison" parent="Quest1Goals/Outlaw3" instance=ExtResource("15_0p6sp")]
message = ""
skill = ""
switchable = false
spawn_rect = Rect2i(0, 0, 0, 0)
ttl = -1

[node name="Quest2Goals" type="Node" parent="."]
script = ExtResource("7_bd8gw")
max_dungeon_occ = 1
min_dungeon_occ = 1
world_loc = Vector3i(13, 8, 0)

[node name="Retznac" parent="Quest2Goals" instance=ExtResource("25_cxgj3")]
mem = SubResource("Resource_dc76m")

[node name="Grenn" parent="Quest2Goals" instance=ExtResource("16_s7e88")]
mem = SubResource("Resource_m8omd")

[node name="Rare" type="Node" parent="."]
script = ExtResource("7_bd8gw")
min_depth = 3
max_board_occ = 1
max_dungeon_occ = 2

[node name="Hammer" parent="Rare" instance=ExtResource("15_ngw60")]

[node name="Rapier" parent="Rare" instance=ExtResource("16_ygxep")]

[node name="Razor" parent="Rare" instance=ExtResource("17_4rmpd")]

[node name="Saber" parent="Rare" instance=ExtResource("18_0s2fs")]

[node name="Sword" parent="Rare" instance=ExtResource("19_holdq")]
spawn_cost = 5.0

[node name="Dynamite" parent="Rare" instance=ExtResource("20_8peit")]

[node name="Carrot" parent="Rare" instance=ExtResource("24_2jxsh")]

[node name="PotionOfAbsinthe" parent="Rare" instance=ExtResource("27_p82t1")]
skill = ""
switchable = false
spawn_rect = Rect2i(0, 0, 0, 0)
ttl = -1

[node name="Canut" parent="Rare" instance=ExtResource("29_4utm8")]

[node name="RareAndDeep" type="Node" parent="."]
script = ExtResource("7_bd8gw")
min_depth = 7
max_dungeon_occ = 2

[node name="SewerAlligator" parent="RareAndDeep" instance=ExtResource("28_gg2lb")]

[node name="Healing" type="Node" parent="."]
script = ExtResource("7_bd8gw")
min_depth = 4
max_board_occ = 1
max_dungeon_occ = 3

[node name="PotionOfHealing" parent="Healing" instance=ExtResource("22_bxpqo")]
message = ""
skill = ""
switchable = false
spawn_rect = Rect2i(0, 0, 0, 0)
ttl = -1

[node name="PotionOfRegen" parent="Healing" instance=ExtResource("12_5tg6f")]

[node name="TestingQuestTransitions" type="Node" parent="."]
script = ExtResource("7_bd8gw")
min_dungeon_occ = 1
world_loc = Vector3i(13, 6, 0)
debug_only = true

[node name="Canut" parent="TestingQuestTransitions" instance=ExtResource("29_4utm8")]

[node name="LoomCards" parent="TestingQuestTransitions" instance=ExtResource("11_320yy")]

[node name="Gem" parent="TestingQuestTransitions" instance=ExtResource("34_io24d")]

[node name="Malachite" parent="TestingQuestTransitions" instance=ExtResource("30_yr7or")]

[node name="Razor" parent="TestingQuestTransitions" instance=ExtResource("17_4rmpd")]

[node name="Grayswandir" parent="TestingQuestTransitions" instance=ExtResource("24_lwi07")]

[node name="Saber" parent="TestingQuestTransitions" instance=ExtResource("18_0s2fs")]

[node name="Cane" parent="TestingQuestTransitions" instance=ExtResource("27_5htvc")]
position = Vector2(631, 437)

[node name="WeightedCane" parent="TestingQuestTransitions" instance=ExtResource("28_0tyeq")]
position = Vector2(631, 437)

[node name="Kobold" parent="TestingQuestTransitions" instance=ExtResource("5_yqsgm")]
mem = null

[node name="MovementStressTest" type="Node" parent="."]
script = ExtResource("7_bd8gw")
max_board_occ = 0
min_dungeon_occ = 5
world_loc = Vector3i(13, 4, 0)

[node name="Lyonese" parent="MovementStressTest" instance=ExtResource("34_yppu8")]
mem = null

[node name="Rat" parent="MovementStressTest" instance=ExtResource("8_eau7g")]

[node name="CrystalsSideQuest" type="Node" parent="."]
script = ExtResource("7_bd8gw")
max_board_occ = 1
max_dungeon_occ = 1
min_dungeon_occ = 1
world_loc = Vector3i(13, 3, 0)

[node name="Pacherr" parent="CrystalsSideQuest" instance=ExtResource("32_yyth2")]

[node name="Pacherr2" parent="CrystalsSideQuest" instance=ExtResource("32_yyth2")]

[node name="Yrganiv" parent="CrystalsSideQuest" instance=ExtResource("33_rbr6l")]

[connection signal="was_attacked" from="SewerOtter" to="SewerOtter" method="_learn_attack"]
[connection signal="was_attacked" from="Labras" to="Labras" method="_learn_attack"]
[connection signal="was_attacked" from="DesertCentipede" to="DesertCentipede" method="_learn_attack"]
[connection signal="was_attacked" from="SulantTiger" to="SulantTiger" method="_learn_attack"]
[connection signal="was_attacked" from="Kobold" to="Kobold" method="_learn_attack"]
[connection signal="was_attacked" from="Max3PerFloor/Rat" to="Max3PerFloor/Rat" method="_learn_attack"]
[connection signal="was_attacked" from="Max3PerFloor/Sahwakoon" to="Max3PerFloor/Sahwakoon" method="_learn_attack"]
[connection signal="was_attacked" from="Quest1Goals/Outlaw1" to="Quest1Goals/Outlaw1" method="_learn_attack"]
[connection signal="was_attacked" from="Quest1Goals/Outlaw2" to="Quest1Goals/Outlaw2" method="_learn_attack"]
[connection signal="visibility_changed" from="Quest1Goals/Outlaw2/PotionOfHealing" to="Quest1Goals/Outlaw2/PotionOfHealing" method="_on_visibility_changed"]
[connection signal="visibility_changed" from="Quest1Goals/Outlaw2/PotionOfRegen" to="Quest1Goals/Outlaw2/PotionOfRegen" method="_on_visibility_changed"]
[connection signal="was_attacked" from="Quest1Goals/Outlaw3" to="Quest1Goals/Outlaw3" method="_learn_attack"]
[connection signal="visibility_changed" from="Quest1Goals/Outlaw3/PotionOfPoison" to="Quest1Goals/Outlaw3/PotionOfPoison" method="_on_visibility_changed"]
[connection signal="was_attacked" from="Quest2Goals/Retznac" to="Quest2Goals/Retznac" method="_learn_attack"]
[connection signal="was_attacked" from="Quest2Goals/Grenn" to="Quest2Goals/Grenn" method="_learn_attack"]
[connection signal="visibility_changed" from="Rare/Hammer" to="Rare/Hammer" method="_on_visibility_changed"]
[connection signal="visibility_changed" from="Rare/Rapier" to="Rare/Rapier" method="_on_visibility_changed"]
[connection signal="visibility_changed" from="Rare/Razor" to="Rare/Razor" method="_on_visibility_changed"]
[connection signal="visibility_changed" from="Rare/Saber" to="Rare/Saber" method="_on_visibility_changed"]
[connection signal="visibility_changed" from="Rare/Sword" to="Rare/Sword" method="_on_visibility_changed"]
[connection signal="visibility_changed" from="Healing/PotionOfHealing" to="Healing/PotionOfHealing" method="_on_visibility_changed"]
[connection signal="visibility_changed" from="Healing/PotionOfRegen" to="Healing/PotionOfRegen" method="_on_visibility_changed"]
[connection signal="visibility_changed" from="TestingQuestTransitions/Razor" to="TestingQuestTransitions/Razor" method="_on_visibility_changed"]
[connection signal="was_attacked" from="MovementStressTest/Lyonese" to="MovementStressTest/Lyonese" method="_learn_attack"]
[connection signal="was_attacked" from="MovementStressTest/Rat" to="MovementStressTest/Rat" method="_learn_attack"]
